{
    "code-eol.decorateBeforeEol": true,
    "code-eol.highlightExtraWhitespace": true,
    "editor.bracketPairColorization.enabled": true,
    "editor.columnSelection": false,
    "editor.copyWithSyntaxHighlighting": false,
    "editor.cursorBlinking": "phase",
    "editor.cursorSmoothCaretAnimation": true,
    "editor.fontFamily": "CascadiaCode Nerd Font, Cascadia Code PL Regular, Consolas, 'Courier New', monospace",
    "editor.fontLigatures": true,
    "editor.fontSize": 14,
    "editor.renderWhitespace": "all",
    "editor.suggestSelection": "first",
    "editor.unicodeHighlight.allowedCharacters": {
        "´": true
    },
    "extensions.ignoreRecommendations": false,
    "files.autoGuessEncoding": true,
    "files.autoSave": "off",
    "files.encoding": "utf8",
    "files.eol": "\r\n",
    "git.autofetch": true,
    "[git-commit]": {
        "files.encoding": "utf8"
    },
    "[git-rebase]": {
        "files.encoding": "utf8"
    },
    "gitlens.defaultDateFormat": "DD/MM/YYYY hh:mm",
    "gitlens.defaultDateShortFormat": "DD/MM/YYYY hh:mm",
    "json.schemas": [
    ],
    "launch": {
    },
    "python.defaultInterpreterPath": "/bin/python",
    "redhat.telemetry.enabled": false,
    "security.workspace.trust.untrustedFiles": "open",
    "sql-formatter.dialect": "pl/sql",
    "sql-formatter.uppercase": true,
    "telemetry.telemetryLevel": "off",
    "terminal.integrated.shell.windows": "C:\\Program Files\\PowerShell\\7\\pwsh.exe",
    "window.title": "${dirty}${activeEditorLong}",
    "workbench.colorTheme": "Nord",
    "workbench.editor.highlightModifiedTabs": true,
    "workbench.editor.showTabs": true,
    "workbench.editor.untitled.hint": "hidden",
    "workbench.list.smoothScrolling": true,
    "workbench.settings.editor": "json",
    "workbench.startupEditor": "none"
}