{
  "choose library location": "C:\\Users\\pcesa\\Documents\\Calibre Library", 
  "database location dialog": "C:\\Users\\pcesa\\Desktop\\Calibre Library", 
  "notified-version-updates": {
    "__class__": "set", 
    "__value__": [
      "4.8"
    ]
  }, 
  "sort_history": [
    [
      "series", 
      true
    ], 
    [
      "title", 
      true
    ], 
    [
      "series", 
      true
    ], 
    [
      "timestamp", 
      false
    ]
  ], 
  "welcome_wizard_device": "default", 
  "welcome_wizard_was_run": true
}